…
``` r
slave_routes %>% 
  filter(!is.na(port_origin)) %>% 
  count(port_origin, sort = TRUE)
```

    ## # A tibble: 243 x 2
    ##    port_origin                            n
    ##    <chr>                              <int>
    ##  1 Liverpool                           4973
    ##  2 Bahia, port unspecified             4478
    ##  3 London                              3126
    ##  4 Rio de Janeiro                      2545
    ##  5 Bristol                             2083
    ##  6 Nantes                              1731
    ##  7 Pernambuco, port unspecified        1310
    ##  8 Havana                              1146
    ##  9 Southeast Brazil, port unspecified  1126
    ## 10 Lisbon                              1098
    ## # ... with 233 more rows

``` r
slave_routes %>% 
  filter(!is.na(port_arrival)) %>% 
  count(port_arrival, sort = TRUE)
```

    ## # A tibble: 273 x 2
    ##    port_arrival                     n
    ##    <chr>                        <int>
    ##  1 Bahia, port unspecified       4223
    ##  2 Rio de Janeiro                2887
    ##  3 Barbados, port unspecified    2038
    ##  4 Jamaica, port unspecified     1715
    ##  5 Kingston                      1622
    ##  6 Pernambuco, port unspecified  1335
    ##  7 Havana                        1321
    ##  8 Cap Francais                  1127
    ##  9 Charleston                     811
    ## 10 Suriname                       761
    ## # ... with 263 more rows
