…
### Volcanoes

``` r
(volcano <- tuesdata$volcano %>% 
   mutate(primary_volcano_type = str_remove(primary_volcano_type, "\\(.*\\)"),
         primary_volcano_type = str_remove(primary_volcano_type, "\\?"),
         last_eruption_year = as.numeric(na_if(last_eruption_year, "Unknown"))))
```

    ## # A tibble: 958 x 26
    ##    volcano_number volcano_name primary_volcano~ last_eruption_y~ country region
    ##             <dbl> <chr>        <chr>                       <dbl> <chr>   <chr> 
    ##  1         283001 Abu          Shield                      -6850 Japan   Japan~
    ##  2         355096 Acamarachi   Stratovolcano                  NA Chile   South~
    ##  3         342080 Acatenango   Stratovolcano                1972 Guatem~ Méxic~
    ##  4         213004 Acigol-Nevs~ Caldera                     -2080 Turkey  Medit~
    ##  5         321040 Adams        Stratovolcano                 950 United~ Canad~
    ##  6         283170 Adatarayama  Stratovolcano                1996 Japan   Japan~
    ##  7         221170 Adwa         Stratovolcano                  NA Ethiop~ Afric~
    ##  8         221110 Afdera       Stratovolcano                  NA Ethiop~ Afric~
    ##  9         284160 Agrigan      Stratovolcano                1917 United~ Japan~
    ## 10         342100 Agua         Stratovolcano                  NA Guatem~ Méxic~
    ## # ... with 948 more rows, and 20 more variables: subregion <chr>,
    ## #   latitude <dbl>, longitude <dbl>, elevation <dbl>, tectonic_settings <chr>,
    ## #   evidence_category <chr>, major_rock_1 <chr>, major_rock_2 <chr>,
    ## #   major_rock_3 <chr>, major_rock_4 <chr>, major_rock_5 <chr>,
    ## #   minor_rock_1 <chr>, minor_rock_2 <chr>, minor_rock_3 <chr>,
    ## #   minor_rock_4 <chr>, minor_rock_5 <chr>, population_within_5_km <dbl>,
    ## #   population_within_10_km <dbl>, population_within_30_km <dbl>,
    ## #   population_within_100_km <dbl>
…
### Eruptions

``` r
(eruptions <- tuesdata$eruptions)
```

    ## # A tibble: 11,178 x 15
    ##    volcano_number volcano_name eruption_number eruption_catego~ area_of_activity
    ##             <dbl> <chr>                  <dbl> <chr>            <chr>           
    ##  1         266030 Soputan                22354 Confirmed Erupt~ <NA>            
    ##  2         343100 San Miguel             22355 Confirmed Erupt~ <NA>            
    ##  3         233020 Fournaise, ~           22343 Confirmed Erupt~ <NA>            
    ##  4         345020 Rincon de l~           22346 Confirmed Erupt~ <NA>            
    ##  5         353010 Fernandina             22347 Confirmed Erupt~ <NA>            
    ##  6         273070 Taal                   22344 Confirmed Erupt~ <NA>            
    ##  7         282050 Kuchinoerab~           22345 Confirmed Erupt~ <NA>            
    ##  8         241040 Whakaari/Wh~           22338 Confirmed Erupt~ 1978/90 Crater ~
    ##  9         311060 Semisopochn~           22341 Confirmed Erupt~ <NA>            
    ## 10         284096 Nishinoshima           22340 Confirmed Erupt~ <NA>            
    ## # ... with 11,168 more rows, and 10 more variables: vei <dbl>,
    ## #   start_year <dbl>, start_month <dbl>, start_day <dbl>,
    ## #   evidence_method_dating <chr>, end_year <dbl>, end_month <dbl>,
    ## #   end_day <dbl>, latitude <dbl>, longitude <dbl>
…
Create bootstrap resamples to train and test the model.

``` r
set.seed(2020)
(volcano_boot <- bootstraps(volcano_df))
```

    ## # Bootstrap sampling 
    ## # A tibble: 25 x 2
    ##    splits            id         
    ##    <list>            <chr>      
    ##  1 <split [958/358]> Bootstrap01
    ##  2 <split [958/356]> Bootstrap02
    ##  3 <split [958/354]> Bootstrap03
    ##  4 <split [958/354]> Bootstrap04
    ##  5 <split [958/358]> Bootstrap05
    ##  6 <split [958/359]> Bootstrap06
    ##  7 <split [958/350]> Bootstrap07
    ##  8 <split [958/358]> Bootstrap08
    ##  9 <split [958/359]> Bootstrap09
    ## 10 <split [958/358]> Bootstrap10
    ## # ... with 15 more rows
…
Fit model on bootstrapped resamples

``` r
(volcano_res <- fit_resamples(volcano_wf,
                              resamples = volcano_boot,
                              control = control_resamples(save_pred = TRUE,
                                                          verbose = TRUE)))
```

    ## # Bootstrap sampling 
    ## # A tibble: 25 x 5
    ##    splits           id          .metrics        .notes         .predictions     
    ##    <list>           <chr>       <list>          <list>         <list>           
    ##  1 <split [958/358~ Bootstrap01 <tibble [2 x 3~ <tibble [0 x ~ <tibble [358 x 6~
    ##  2 <split [958/356~ Bootstrap02 <tibble [2 x 3~ <tibble [0 x ~ <tibble [356 x 6~
    ##  3 <split [958/354~ Bootstrap03 <tibble [2 x 3~ <tibble [0 x ~ <tibble [354 x 6~
    ##  4 <split [958/354~ Bootstrap04 <tibble [2 x 3~ <tibble [0 x ~ <tibble [354 x 6~
    ##  5 <split [958/358~ Bootstrap05 <tibble [2 x 3~ <tibble [0 x ~ <tibble [358 x 6~
    ##  6 <split [958/359~ Bootstrap06 <tibble [2 x 3~ <tibble [0 x ~ <tibble [359 x 6~
    ##  7 <split [958/350~ Bootstrap07 <tibble [2 x 3~ <tibble [0 x ~ <tibble [350 x 6~
    ##  8 <split [958/358~ Bootstrap08 <tibble [2 x 3~ <tibble [0 x ~ <tibble [358 x 6~
    ##  9 <split [958/359~ Bootstrap09 <tibble [2 x 3~ <tibble [0 x ~ <tibble [359 x 6~
    ## 10 <split [958/358~ Bootstrap10 <tibble [2 x 3~ <tibble [0 x ~ <tibble [358 x 6~
    ## # ... with 15 more rows
…
