…
    ## 
    ##  Downloading file 1 of 4: `census.csv`
    ##  Downloading file 2 of 4: `slave_routes.csv`
    ##  Downloading file 3 of 4: `african_names.csv`
    ##  Downloading file 4 of 4: `blackpast.csv`

### Slave routes

``` r
(slave_routes <- tuesdata$slave_routes)
```

    ## # A tibble: 36,110 x 8
    ##    voyage_id ship_name port_origin place_of_purcha~ port_arrival year_arrival
    ##        <dbl> <chr>     <chr>       <chr>            <chr>               <dbl>
    ##  1     81711 Hannah    Liverpool   Calabar          St. Vincent~         1787
    ##  2     81712 Hannah    Liverpool   New Calabar      Grenada, po~         1789
    ##  3     81713 Hannah    Liverpool   Bight of Biafra~ Kingston             1789
    ##  4     81714 Hannah    Liverpool   Bonny            St. Vincent~         1791
    ##  5     81715 Hannah    Liverpool   Congo River      Grenada, po~         1792
    ##  6     81716 Hannah    Liverpool   Ambriz           Kingston             1793
    ##  7     81717 Hannah    Liverpool   <NA>             <NA>                 1794
    ##  8     81718 Hannibal  London      Bonny            Dominica, p~         1785
    ##  9     81723 Harlequin Liverpool   Cape Mount (Cap~ Barbados, p~         1797
    ## 10     81724 Harlequin Liverpool   West Central Af~ St. Kitts, ~         1798
    ## # ... with 36,100 more rows, and 2 more variables: n_slaves_arrived <dbl>,
    ## #   captains_name <chr>
…
### Census data

``` r
(census <- tuesdata$census)
```

    ## # A tibble: 102 x 8
    ##    region    division  year    total    white   black black_free black_slaves
    ##    <chr>     <chr>    <dbl>    <dbl>    <dbl>   <dbl>      <dbl>        <dbl>
    ##  1 USA Total <NA>      1870 38558371 33589377 4880009    4880009            0
    ##  2 USA Total <NA>      1860 31443321 26922537 4441830     488070      3953760
    ##  3 USA Total <NA>      1850 23191876 19553068 3638808     434495      3204313
    ##  4 USA Total <NA>      1840 17063353 14189705 2873648     386293      2487355
    ##  5 USA Total <NA>      1830 12860702 10532060 2328642     619599      1709043
    ##  6 USA Total <NA>      1820  9638453  7866797 1771656     233634      1538022
    ##  7 USA Total <NA>      1810  7239881  5862073 1377808     186446      1191362
    ##  8 USA Total <NA>      1800  5308483  4306446 1002037     108435       893602
    ##  9 USA Total <NA>      1790  3929214  3172006  757208      59527       697681
    ## 10 Northeast <NA>      1870 12298730 12117269  179738     179738            0
    ## # ... with 92 more rows
…
### African names of liberated slaves

``` r
(african_names <- tuesdata$african_names)
```

    ## # A tibble: 91,490 x 11
    ##       id voyage_id name  gender   age height ship_name year_arrival
    ##    <dbl>     <dbl> <chr> <chr>  <dbl>  <dbl> <chr>            <dbl>
    ##  1     1      2314 Bora  Man       30   62.5 NS de Re~         1819
    ##  2     2      2315 Flam  Man       30   64   Fabiana           1819
    ##  3     3      2315 Dee   Man       28   65   Fabiana           1819
    ##  4     4      2315 Pao   Man       22   62.5 Fabiana           1819
    ##  5     5      2315 Mufa  Man       16   59   Fabiana           1819
    ##  6     6      2315 Latty Man       22   67.5 Fabiana           1819
    ##  7     7      2315 So    Man       20   62   Fabiana           1819
    ##  8     8      2315 Trua  Man       30   65.5 Fabiana           1819
    ##  9     9      2315 Tou   Man       18   61.5 Fabiana           1819
    ## 10    10      2315 Quaco Man       23   62   Fabiana           1819
    ## # ... with 91,480 more rows, and 3 more variables: port_disembark <chr>,
    ## #   port_embark <chr>, country_origin <chr>
…
